{
  "contrib": {
    "FADE01": {
      "name": "FadeByNightVA",
      "social": "https://fadebynightva.carrd.co/",
      "icon": "$mdiCrown"
    },
    "MIST01": {
      "name": "Mist",
      "social": "https://linktr.ee/Mist0013"
    },
    "JAYT01": {
      "name": "Jay Taylor",
      "social": "https://linktr.ee/Yippieskip"
    }
  },
  "categories": [
    {
      "label": "Official Content",
      "icon": "$mdiSeal",
      "entries": [
        {
          "title": "Official Homepage",
          "description": "Landing page for FadeByNightVA",
          "url": "https://fadebynightva.carrd.co/",
          "icon": "$mdiCardAccountDetails",
          "authors": ["FADE01"]
        },
        {
          "title": "Main Linktree",
          "description": "All links from FadeByNightVA",
          "url": "https://linktr.ee/FadeByNightVA",
          "icon": "brand:ILinktree",
          "authors": ["FADE01"]
        },
        {
          "title": "Audio Master List",
          "description": "Every FadeByNight audio, where to find them, and more",
          "url": "https://docs.google.com/document/d/1r0NUAxqk8ExLYEJNpFbrkRbvtTS_CFZMb5y4tkbT9r8/edit",
          "icon": "$mdiPlaylistMusic",
          "authors": ["FADE01"]
        },
        {
          "title": "Space Boyz Shorts",
          "description": "Illustrated slice-of-life series",
          "url": "https://youtube.com/playlist?list=PL5WZ1aTIIl4jG9O4EXq2beagRQGOAG7oL",
          "icon": "brand:IYouTube",
          "authors": ["FADE01", "MIST01"]
        }
      ]
    },
    {
      "label": "Reference Materials",
      "entries": [
        {
          "title": "Audio Checklist",
          "description": "Track your listening, share your progress",
          "url": "https://docs.google.com/document/u/2/d/1wYJeAcZN5OQMw3Kcdefz2GcyiLzvpMfmwAC8evkfKfk/edit",
          "icon": "$mdiFormatListChecks",
          "authors": ["MIST01"]
        },
        {
          "title": "Character Guide",
          "description": "A who's-who of the FadeByNight audio-verse(s)",
          "url": "https://docs.google.com/spreadsheets/d/1HLUtui_4Z1QwjurcqWrLWioVzcMhy4M1lw8JJH9x_kk/edit",
          "icon": "$mdiNotebook",
          "authors": ["MIST01"]
        },
        {
          "title": "\"Which Audio Should I Listen To?\"",
          "description": "This decision tree can help you narrow it down",
          "url": "https://viewer.diagrams.net/?highlight=0000ff&nav=1&title=FBN%20Decision%20Tree#Uhttps%3A%2F%2Fdrive.google.com%2Fuc%3Fid%3D1YnqOw00X_Qzpm5QlHcgZ8xFFbgXrnktW%26export%3Ddownload",
          "icon": "$mdiFamilyTree",
          "authors": ["JAYT01", "MIST01"]
        }
      ]
    },
    {
      "label": "Fan Art",
      "icon": "$mdiBrush",
      "entries": [
        {
          "title": "Bluesky",
          "url": "https://bsky.app/hashtag/FadeByNightFanArt",
          "description": "#FadeByNightFanArt",
          "icon": "brand:IBluesky"
        },
        {
          "title": "DeviantArt",
          "url": "https://www.deviantart.com/tag/fadebynightfanart",
          "description": "#FadeByNightFanArt",
          "icon": "brand:IDeviantArt"
        },
        {
          "title": "X / Twitter",
          "url": "https://x.com/search?q=%23FadeByNightFanArt",
          "description": "#FadeByNightFanArt",
          "icon": "brand:IXTwitter"
        }
      ]
    }
  ]
}
